{
    "$schema": "https://docs.renovatebot.com/renovate-schema.json",
    "extends": [
        "local>server-platform/server-platform-renovate-config:frontend",
        ":automergePatch"
    ],
    "automergeType": "branch",
    "prCreation": "not-pending",
    "timezone": "Europe/Warsaw"
}
